../Core/Src/lib/transfer_data.c:31:6:Mount_SD	16	static
../Core/Src/lib/transfer_data.c:36:6:Unmount_SD	16	static
../Core/Src/lib/transfer_data.c:43:9:Close_File	8	static
../Core/Src/lib/transfer_data.c:48:9:Open_File	56	static
../Core/Src/lib/transfer_data.c:82:9:Write_File	16	static
../Core/Src/lib/transfer_data.c:91:9:Read_File	40	static
../Core/Src/lib/transfer_data.c:160:9:Remove_File	16	static
../Core/Src/lib/transfer_data.c:185:9:Create_Dir	16	static
../Core/Src/lib/transfer_data.c:199:6:Check_SD_Space	16	static
