{
    "type": "record",
    "duration": "unknown",
    "beat": [
        0.993831,
        0.974762,
        0.720695,
        0.199663,
        0.018508,
        0.157039,
        0.177790,
        0.159282,
        0.179473,
        0.180595,
        0.199103,
        0.218172,
        0.241167,
        0.257992,
        0.286035,
        0.324734,
        0.327538,
        0.344363,
        0.346046,
        0.342120,
        0.374649,
        0.353898,
        0.338755,
        0.332025,
        0.306786,
        0.272013,
        0.249579,
        0.233315,
        0.246775,
        0.219854,
        0.232193,
        0.245653,
        0.232754,
        0.226584,
        0.234997,
        0.233315,
        0.237241,
        0.245653,
        0.243410,
        0.252384,
        0.256310,
        0.249579,
        0.259114,
        0.251262,
        0.242288,
        0.257431,
        0.266405,
        0.255749,
        0.263040,
        0.249579,
        0.264722,
        0.260796,
        0.265283,
        0.256870,
        0.275939,
        0.260236,
        0.265844,
        0.264162,
        0.264162,
        0.263601,
        0.282109,
        0.293326,
        0.280987,
        0.288839,
        0.282109,
        0.287717,
        0.295008,
        0.282109,
        0.280426,
        0.293326,
        0.311273,
        0.327538,
        0.329781,
        0.328660,
        0.348289,
        0.335951,
        0.323612,
        0.303982,
        0.301178,
        0.296691,
        0.274818,
        0.272013,
        0.277622,
        0.278183,
        0.287717,
        0.284352,
        0.274818,
        0.296691,
        0.272574,
        0.283231,
        0.284352,
        0.262479,
        0.189007,
        0.191812,
        0.224341,
        0.340998,
        0.440830,
        0.605721,
        0.727987,
        0.864274,
        1.000000,
        0.955693,
        0.789680,
        0.226584,
        0.000000,
        0.173864,
        0.181716,
        0.149748,
        0.198542,
        0.194616,
        0.225463,
        0.243410,
        0.238362,
        0.270892,
        0.287156,
        0.331464,
        0.335951,
        0.351094,
        0.342681,
        0.355020,
        0.362872,
        0.346607,
        0.341559,
        0.353898,
        0.316882,
        0.000000,
        0.000000,
        0.000000,
        0.000000,
        0.000000,
        0.000000,
        0.000000,
        0.000000,
        0.000000,
        0.000000,
        0.000000,
        0.000000,
        0.000000,
        0.000000,
        0.000000,
        0.000000,
        0.000000,
        0.000000,
        0.000000,
        0.000000,
        0.000000,
        0.000000,
        0.000000,
        0.000000,
        0.000000,
        0.000000,
        0.000000,
        0.000000,
        0.000000,
        0.000000,
        0.000000,
        0.000000,
        0.000000,
        0.000000,
        0.000000,
        0.000000,
        0.000000,
        0.000000,
        0.000000,
        0.000000,
        0.000000,
        0.000000,
        0.000000,
        0.000000,
        0.000000,
        0.000000,
        0.000000,
        0.000000,
        0.000000,
        0.000000,
        0.000000,
        0.000000,
        0.000000,
        0.000000,
        0.000000,
        0.000000,
        0.000000,
        0.000000,
        0.000000,
        0.000000,
        0.000000,
        0.000000,
        0.000000,
        0.993831,
        0.974762,
        0.720695,
        0.199663,
        0.018508,
        0.157039,
        0.177790,
        0.159282,
        0.179473,
        0.180595,
        0.199103,
        0.218172,
        0.241167,
        0.257992,
        0.286035,
        0.324734,
        0.327538,
        0.344363,
        0.346046,
        0.342120,
        0.374649,
        0.353898,
        0.338755,
        0.332025,
        0.306786,
        0.272013,
        0.249579,
        0.233315,
        0.246775,
        0.219854,
        0.232193,
        0.245653,
        0.232754,
        0.226584,
        0.234997,
        0.233315,
        0.237241,
        0.245653,
        0.243410,
        0.252384,
        0.256310,
        0.249579,
        0.259114,
        0.251262,
        0.242288,
        0.257431,
        0.266405,
        0.255749,
        0.263040,
        0.249579,
        0.264722,
        0.260796,
        0.265283,
        0.256870,
        0.275939,
        0.260236,
        0.265844,
        0.264162,
        0.264162,
        0.263601,
        0.282109,
        0.293326,
        0.280987,
        0.288839,
        0.282109,
        0.287717,
        0.295008,
        0.282109,
        0.280426,
        0.293326,
        0.311273,
        0.327538,
        0.329781,
        0.328660,
        0.348289,
        0.335951,
        0.323612,
        0.303982,
        0.301178,
        0.296691,
        0.274818,
        0.272013,
        0.277622,
        0.278183,
        0.287717,
        0.284352,
        0.274818,
        0.296691,
        0.272574,
        0.283231,
        0.284352,
        0.262479,
        0.189007,
        0.191812,
        0.224341,
        0.340998,
        0.440830,
        0.605721,
        0.727987,
        0.864274,
        1.000000,
        0.955693,
        0.789680,
        0.226584,
        0.000000,
        0.173864,
        0.181716,
        0.149748,
        0.198542,
        0.194616,
        0.225463,
        0.243410,
        0.238362,
        0.270892,
        0.287156,
        0.331464,
        0.335951,
        0.351094,
        0.342681,
        0.355020,
        0.362872,
        0.346607,
        0.341559,
        0.353898,
        0.316882,
        0.000000,
        0.000000,
        0.000000,
        0.000000,
        0.000000,
        0.000000,
        0.000000,
        0.000000,
        0.000000,
        0.000000,
        0.000000,
        0.000000,
        0.000000,
        0.000000,
        0.000000,
        0.000000,
        0.000000,
        0.000000,
        0.000000,
        0.000000,
        0.000000,
        0.000000,
        0.000000,
        0.000000,
        0.000000,
        0.000000,
        0.000000,
        0.000000,
        0.000000,
        0.000000,
        0.000000,
        0.000000,
        0.000000,
        0.000000,
        0.000000,
        0.000000,
        0.000000,
        0.000000,
        0.000000,
        0.000000,
        0.000000,
        0.000000,
        0.000000,
        0.000000,
        0.000000,
        0.000000,
        0.000000,
        0.000000,
        0.000000,
        0.000000,
        0.000000,
        0.000000,
        0.000000,
        0.000000,
        0.000000,
        0.000000,
        0.000000,
        0.000000,
        0.000000,
        0.000000,
        0.000000,
        0.000000,
        0.000000,
        0.993831,
        0.974762,
        0.720695,
        0.199663,
        0.018508,
        0.157039,
        0.177790,
        0.159282,
        0.179473,
        0.180595,
        0.199103,
        0.218172,
        0.241167,
        0.257992,
        0.286035,
        0.324734,
        0.327538,
        0.344363,
        0.346046,
        0.342120,
        0.374649,
        0.353898,
        0.338755,
        0.332025,
        0.306786,
        0.272013,
        0.249579,
        0.233315,
        0.246775,
        0.219854,
        0.232193,
        0.245653,
        0.232754,
        0.226584,
        0.234997,
        0.233315,
        0.237241,
        0.245653,
        0.243410,
        0.252384,
        0.256310,
        0.249579,
        0.259114,
        0.251262,
        0.242288,
        0.257431,
        0.266405,
        0.255749,
        0.263040,
        0.249579,
        0.264722,
        0.260796,
        0.265283,
        0.256870,
        0.275939,
        0.260236,
        0.265844,
        0.264162,
        0.264162,
        0.263601,
        0.282109,
        0.293326,
        0.280987,
        0.288839,
        0.282109,
        0.287717,
        0.295008,
        0.282109,
        0.280426,
        0.293326,
        0.311273,
        0.327538,
        0.329781,
        0.328660,
        0.348289,
        0.335951,
        0.323612,
        0.303982,
        0.301178,
        0.296691,
        0.274818,
        0.272013,
        0.277622,
        0.278183,
        0.287717,
        0.284352,
        0.274818,
        0.296691,
        0.272574,
        0.283231,
        0.284352,
        0.262479,
        0.189007,
        0.191812,
        0.224341,
        0.340998,
        0.440830,
        0.605721,
        0.727987,
        0.864274,
        1.000000,
        0.955693,
        0.789680,
        0.226584,
        0.000000,
        0.173864,
        0.181716,
        0.149748,
        0.198542,
        0.194616,
        0.225463,
        0.243410,
        0.238362,
        0.270892,
        0.287156,
        0.331464,
        0.335951,
        0.351094,
        0.342681,
        0.355020,
        0.362872,
        0.346607,
        0.341559,
        0.353898,
        0.316882,
        0.000000,
        0.000000,
        0.000000,
        0.000000,
        0.000000,
        0.000000,
        0.000000,
        0.000000,
        0.000000,
        0.000000,
        0.000000,
        0.000000,
        0.000000,
        0.000000,
        0.000000,
        0.000000,
        0.000000,
        0.000000,
        0.000000,
        0.000000,
        0.000000,
        0.000000,
        0.000000,
        0.000000,
        0.000000,
        0.000000,
        0.000000,
        0.000000,
        0.000000,
        0.000000,
        0.000000,
        0.000000,
        0.000000,
        0.000000,
        0.000000,
        0.000000,
        0.000000,
        0.000000,
        0.000000,
        0.000000,
        0.000000,
        0.000000,
        0.000000,
        0.000000,
        0.000000,
        0.000000,
        0.000000,
        0.000000,
        0.000000,
        0.000000,
        0.000000,
        0.000000,
        0.000000,
        0.000000,
        0.000000,
        0.000000,
        0.000000,
        0.000000,
        0.000000,
        0.000000,
        0.000000,
        0.000000,
        0.000000,
        0.993831,
        0.974762,
        0.720695,
        0.199663,
        0.018508,
        0.157039,
        0.177790,
        0.159282,
        0.179473,
        0.180595,
        0.199103,
        0.218172,
        0.241167,
        0.257992,
        0.286035,
        0.324734,
        0.327538,
        0.344363,
        0.346046,
        0.342120,
        0.374649,
        0.353898,
        0.338755,
        0.332025,
        0.306786,
        0.272013,
        0.249579,
        0.233315,
        0.246775,
        0.219854,
        0.232193,
        0.245653,
        0.232754,
        0.226584,
        0.234997,
        0.233315,
        0.237241,
        0.245653,
        0.243410,
        0.252384,
        0.256310,
        0.249579,
        0.259114,
        0.251262,
        0.242288,
        0.257431,
        0.266405,
        0.255749,
        0.263040,
        0.249579,
        0.264722,
        0.260796,
        0.265283,
        0.256870,
        0.275939,
        0.260236,
        0.265844,
        0.264162,
        0.264162,
        0.263601,
        0.282109,
        0.293326,
        0.280987,
        0.288839,
        0.282109,
        0.287717,
        0.295008,
        0.282109,
        0.280426,
        0.293326,
        0.311273,
        0.327538,
        0.329781,
        0.328660,
        0.348289,
        0.335951,
        0.323612,
        0.303982,
        0.301178,
        0.296691,
        0.274818,
        0.272013,
        0.277622,
        0.278183,
        0.287717,
        0.284352,
        0.274818,
        0.296691,
        0.272574,
        0.283231,
        0.284352,
        0.262479,
        0.189007,
        0.191812,
        0.224341,
        0.340998,
        0.440830,
        0.605721,
        0.727987,
        0.864274,
        1.000000,
        0.955693,
        0.789680,
        0.226584,
        0.000000,
        0.173864,
        0.181716,
        0.149748,
        0.198542,
        0.194616,
        0.225463,
        0.243410,
        0.238362,
        0.270892,
        0.287156,
        0.331464,
        0.335951,
        0.351094,
        0.342681,
        0.355020,
        0.362872,
        0.346607,
        0.341559,
        0.353898,
        0.316882,
        0.000000,
        0.000000,
        0.000000,
        0.000000,
        0.000000,
        0.000000,
        0.000000,
        0.000000,
        0.000000,
        0.000000,
        0.000000,
        0.000000,
        0.000000,
        0.000000,
        0.000000,
        0.000000,
        0.000000,
        0.000000,
        0.000000,
        0.000000,
        0.000000,
        0.000000,
        0.000000,
        0.000000,
        0.000000,
        0.000000,
        0.000000,
        0.000000,
        0.000000,
        0.000000,
        0.000000,
        0.000000,
        0.000000,
        0.000000,
        0.000000,
        0.000000,
        0.000000,
        0.000000,
        0.000000,
        0.000000,
        0.000000,
        0.000000,
        0.000000,
        0.000000,
        0.000000,
        0.000000,
        0.000000,
        0.000000,
        0.000000,
        0.000000,
        0.000000,
        0.000000,
        0.000000,
        0.000000,
        0.000000,
        0.000000,
        0.000000,
        0.000000,
        0.000000,
        0.000000,
        0.000000,
        0.000000,
        0.000000
    ],
    "user": "khanh"
}